…
    ## See spec(...) for full column specifications.

``` r
#data.3 <- read.csv("test_data.csv", header = TRUE, sep = ",", stringsAsFactors = TRUE)

add_predictions(testing, model.10, var = "pred")
```

    ## # A tibble: 407 x 15
    ##    institution_name basic grad_rate student_count spending_per_aw…
    ##    <chr>            <chr>     <dbl>         <dbl>            <dbl>
    ##  1 Broward College  Asso…     0.207         43883            23811
    ##  2 Texas State Uni… Mast…     0.217         31005            42278
    ##  3 University of H… Mast…     0.323          2889            36332
    ##  4 College of Will… Rese…     0.251          6271            80906
    ##  5 University of N… Mast…     0.173          5429            57497
    ##  6 Eastern Washing… Mast…     0.211         11678            45343
    ##  7 West Chester Un… Mast…     0.214         13711            53890
    ##  8 St. Mary's Coll… Bacc…     0.22           1819           109456
    ##  9 University of W… Mast…     0.23           6445            45862
    ## 10 Dickinson State… Bacc…     0.229          1449            49919
    ## # … with 397 more rows, and 10 more variables: full_time_pct <dbl>,
    ## #   full_time_count <dbl>, med_sat_value <dbl>, aid_value <dbl>,
    ## #   endow_value <dbl>, grad_on_time_pct <dbl>, pell_value <dbl>,
    ## #   fresh_retain_value <dbl>, full_time_fac_pct <dbl>, pred <dbl>
